%YAML 1.1
%TAG !u! tag:unity3d.com,2011:
--- !u!162 &1
EditorUserSettings:
  m_ObjectHideFlags: 0
  serializedVersion: 4
  m_ConfigSettings:
    RecentlyUsedSceneGuid-0:
      value: 06010d0207540a0c0b0b0e76137408444f154d297c29726679284e63b3b1356a
      flags: 0
    RecentlyUsedSceneGuid-1:
      value: 50505256550d5d0a555a0d26117406444f4e1e7f2f2e24632e7d4d36e4e2306c
      flags: 0
    RecentlyUsedSceneGuid-2:
      value: 5104045501575e090e565f7b4926094440161a2c7b7e7e342e2a1f64b1b96c3c
      flags: 0
    RecentlyUsedSceneGuid-3:
      value: 5309015651540c0f0c58587b427709441416487f7d2e20617a7e1e6bb6e36d6b
      flags: 0
    RecentlyUsedSceneGuid-4:
      value: 5a5757560101590a5d0c0e24427b5d44434e4c7a7b7a23677f2b4565b7b5353a
      flags: 0
    RecentlyUsedSceneGuid-5:
      value: 0608015454015b090c5a5b7b11210f4445164a7e2a7e23352b791c61e6e23069
      flags: 0
    RecentlyUsedSceneGuid-6:
      value: 060850555350580f5f0858731125594446161b7d742a71697d7d4b60bbb5633c
      flags: 0
    RecentlyUsedSceneGuid-7:
      value: 545300005d530f59580b5b77442608444516482f7c7924362b7e1831e4b6633a
      flags: 0
    RecentlyUsedSceneGuid-8:
      value: 5609035455055c0a5a57557744205a44424e49282d7d73637e781831b5b16068
      flags: 0
    RecentlyUsedSceneGuid-9:
      value: 52050c5557510d095f565e2116770e4445161a2e7870776275714a30bae66c60
      flags: 0
    vcSharedLogLevel:
      value: 0d5e400f0650
      flags: 0
  m_VCAutomaticAdd: 1
  m_VCDebugCom: 0
  m_VCDebugCmd: 0
  m_VCDebugOut: 0
  m_SemanticMergeMode: 2
  m_DesiredImportWorkerCount: 2
  m_StandbyImportWorkerCount: 2
  m_IdleImportWorkerShutdownDelay: 60000
  m_VCShowFailedCheckout: 1
  m_VCOverwriteFailedCheckoutAssets: 1
  m_VCProjectOverlayIcons: 1
  m_VCHierarchyOverlayIcons: 1
  m_VCOtherOverlayIcons: 1
  m_VCAllowAsyncUpdate: 1
  m_ArtifactGarbageCollection: 1
